…
    ## 
    ## Attaching package: 'lubridate'

    ## The following objects are masked from 'package:base':
    ## 
    ##     date, intersect, setdiff, union

# The Code

``` r
pres_2016_trail
```

    ## # A tibble: 177 × 5
    ##    candidate date       location                     lat   lng
    ##    <chr>     <date>     <chr>                      <dbl> <dbl>
    ##  1 Clinton   2016-09-05 Cleveland, Ohio             41.5 -81.7
    ##  2 Clinton   2016-09-05 Hampton, Illinois           41.6 -90.4
    ##  3 Clinton   2016-09-06 Tampa, Florida              28.0 -82.5
    ##  4 Clinton   2016-09-07 New York City, New York     40.7 -74.0
    ##  5 Clinton   2016-09-08 Charlotte, North Carolina   35.2 -80.8
    ##  6 Clinton   2016-09-08 Kansas City, Missouri       39.1 -94.6
    ##  7 Clinton   2016-09-09 New York City, New York     40.7 -74.0
    ##  8 Clinton   2016-09-12 New York City, New York     40.7 -74.0
    ##  9 Clinton   2016-09-15 Greensboro, North Carolina  36.1 -79.8
    ## 10 Clinton   2016-09-15 Washington, DC              38.9 -77.0
    ## # … with 167 more rows
…
